{
  "booking": {
    "sources": [
      {
        "name": "auth",
        "type": "internal",
        "url": "https://gitlab.com/api/v4/projects"
      }
    ],
    "versions": {
      "0.0.1": {
        "auth": "0.0.1"
      },
      "0.1.0": {
        "auth": "0.0.1"
      }
    }
  },
  "dashboard": {
    "sources": [
      {
        "name": "auth",
        "type": "internal",
        "url": "https://gitlab.com/api/v4/projects"
      }
    ],
    "versions": {
      "0.0.1": {
        "auth": "0.0.1"
      }
    }
  },
  "host": {
    "sources": [
      {
        "name": "auth",
        "type": "internal",
        "url": "https://gitlab.com/api/v4/projects"
      },
      {
        "name": "booking",
        "type": "internal",
        "url": "https://gitlab.com/api/v4/projects"
      },
      {
        "name": "dashboard",
        "type": "internal",
        "url": "https://gitlab.com/api/v4/projects"
      },
      {
        "name": "shopping",
        "type": "internal",
        "url": "https://gitlab.com/api/v4/projects"
      },
      {
        "name": "news",
        "type": "external",
        "url": "https://github.com/callstack/news-mini-app-showcase"
      }
    ],
    "versions": {
      "0.0.1": {
        "auth": "0.0.1",
        "booking": "0.0.1",
        "dashboard": "0.0.1",
        "shopping": "0.0.1",
        "news": "0.0.1"
      },
      "1.0.0": {}
    }
  },
  "shell": {
    "sources": [
      {
        "name": "auth",
        "type": "internal",
        "url": "https://gitlab.com/api/v4/projects"
      },
      {
        "name": "booking",
        "type": "internal",
        "url": "https://gitlab.com/api/v4/projects"
      },
      {
        "name": "dashboard",
        "type": "internal",
        "url": "https://gitlab.com/api/v4/projects"
      },
      {
        "name": "shopping",
        "type": "internal",
        "url": "https://gitlab.com/api/v4/projects"
      },
      {
        "name": "news",
        "type": "external",
        "url": "https://github.com/callstack/news-mini-app-showcase"
      }
    ],
    "versions": {
      "0.0.1": {
        "auth": "0.0.1",
        "booking": "0.0.1",
        "dashboard": "0.0.1",
        "shopping": "0.0.1",
        "news": "0.0.1"
      },
      "1.0.0": {
        "auth": "0.0.1",
        "booking": "0.0.1",
        "dashboard": "0.0.1",
        "shopping": "0.0.1",
        "news": "0.0.1"
      }
    }
  },
  "shopping": {
    "sources": [
      {
        "name": "auth",
        "type": "internal",
        "url": "https://gitlab.com/api/v4/projects"
      }
    ],
    "versions": {
      "0.0.1": {
        "auth": "0.0.1"
      }
    }
  }
}